ENGLISH CATEGORY	中文類別	ENGLISH NAME	中文名稱	ENGLISH ADDRESS	中文地址	EASTING	坐標東	NORTHING	坐標北	OPENING HOURS	開放時間	TELEPHONE	聯絡電話	FAX NUMBER	傳真號碼	EMAIL ADDRESS	電郵地址	WEBSITE	網頁	REMARKS	備註	LONGLAT - REVERSED	
Hospitals under the Hospital Authority	醫院管理局轄下的醫院	Queen Elizabeth Hospital	伊利沙伯醫院	"30 Gascoigne Road, Kowloon"	九龍加士居道30號	836039	836039	818876	818876			29588888	29588888									"114.17397600000004,22.309079"	
Hospitals under the Hospital Authority	醫院管理局轄下的醫院	Prince of Wales Hospital	威爾斯親王醫院	"30-32 Ngan Shing Street, Sha Tin, New Territories"	新界沙田銀城街30-32號	838782	838782	826748	826748			26322211	26322211									"114.20131400000002,22.378278"	
Hospitals under the Hospital Authority	醫院管理局轄下的醫院	North Lantau Hospital	北大嶼山醫院	"8 Chung Yan Road, Tung Chung, Lantau, New Territories"	新界大嶼山東涌松仁路8號	811770.2	811770.2	815987.8	815987.8			3467 7000	3467 7000							Service commences on 24 Sep 2013	2013年9月24號開始提供服務	"113.93933470000002,22.2820664"	
Hospitals under the Hospital Authority	醫院管理局轄下的醫院	Alice Ho Miu Ling Nethersole Hospital	雅麗氏何妙齡那打素醫院	"11 Chuen On Road, Tai Po, New Territories"	新界大埔全安路11號	836053	836053	835469	835469	Mon - Fri 8:30am - 5:30pm		26892000	26892000									"114.17482700000005,22.458671"	
Hospitals under the Hospital Authority	醫院管理局轄下的醫院	Haven of Hope Hospital	靈實醫院	"8 Haven of Hope Road, Tseung Kwan O, Kowloon"	九龍將軍澳靈實路8號	844448	844448	819423	819423	Mon - Fri 9:00am - 5:00pm Sat 9:00am - 1:00pm 		27038000	27038000									"114.25629000000004,22.31374"	
Hospitals under the Hospital Authority	醫院管理局轄下的醫院	Hong Kong Buddhist Hospital	香港佛教醫院	"10 Heng Lam Steet, Lok Fu, Kowloon"	九龍樂富杏林街10號	837490	837490	821810	821810			23396111	23396111									"114.18857079999998,22.3359682"	
Hospitals under the Hospital Authority	醫院管理局轄下的醫院	Shatin Hospital	沙田醫院	"33 A Kung Kok Street, Ma On Shan, Sha Tin, New Territories"	新界沙田馬鞍山亞公角街33號	839950	839950	828761	828761	Mon - Fri 9:00am - 5:00pm		26367500	26367500									"114.21276399999999,22.398076"	
Hospitals under the Hospital Authority	醫院管理局轄下的醫院	United Christian Hospital	基督教聯合醫院	"130 Hip Wo Street, Kwun Tong, Kowloon"	九龍觀塘協和街130號	841525	841525	820365	820365			35134000	35134000									"114.22703000000001,22.323359"	
Hospitals under the Hospital Authority	醫院管理局轄下的醫院	Yaumatei Specialist Clinic(Extension)	油麻地專科診所(新翼)	"143 Battery Street, KLN"	九龍油麻地炮台街 143 號	835470.1	835470.1	818918.4	818918.4	Mon - Fri 8:45am - 5:33pm	星期一至五 上午八時四十五分至下午五時三十三分	2332 4554	2332 4554									"114.169127,22.30927"	
Hospitals under the Hospital Authority	醫院管理局轄下的醫院	Wong Tai Sin Hospital	東華三院黃大仙醫院	"124 Shatin Pass Road, Wong Tai Sin, Kowloon"	九龍黃大仙沙田坳道124號	838271	838271	823079.1	823079.1	"Mon - Fri 8:30am - 4:30pm, Sat 9:00am - 1:00pm"		23200377	23200377									"114.19584420000001,22.3470677"	
Hospitals under the Hospital Authority	醫院管理局轄下的醫院	Castle Peak Hospital	青山醫院	"15 Tsing Chung Koon Road, Tuen Mun, New Territories"	新界屯門青松觀路15號	815353	815353	830092	830092			24567111	24567111									"113.97303799999997,22.409099"	
Hospitals under the Hospital Authority	醫院管理局轄下的醫院	Tai Po Hospital	大埔醫院	"9 Chuen On Road, Tai Po, New Territories"	新界大埔全安路9號	836046	836046	835730	835730			26076333	26076333									"114.17375979999997,22.4608922"	
Hospitals under the Hospital Authority	醫院管理局轄下的醫院	Tseung Kwan O Hospital	將軍澳醫院	"2 Po Ning Lane, Hang Hau, Tseung Kwan O, Kowloon"	新界將軍澳坑口寶寧里2號	845884	845884	819888	819888			22080111	22080111									"114.27018099999998,22.31776"	
Hospitals under the Hospital Authority	醫院管理局轄下的醫院	Kwai Chung Hospital	葵涌醫院	"3-15 Kwai Chung Hospital Road, Kwai Chung, New Territories"	新界葵涌醫院路3-15號	831785	831785	822646	822646			29903000	29903000									"114.133197,22.343331"	
Hospitals under the Hospital Authority	醫院管理局轄下的醫院	Kwong Wah Hospital GOPD	廣華醫院全科門診部	"25 Waterloo Road, Kowloon"	九龍窩打老道25號	835811	835811	819576	819576	"Mon - Fri 8:30am - 5:30pm, Sat 9:00am - 1:00pm"		23322311	23322311									"114.1724719,22.3155468"	
Hospitals under the Hospital Authority	醫院管理局轄下的醫院	Grantham Hospital	葛量洪醫院	"125 Wong Chuk Hang Road, Aberdeen, Hong Kong"	香港香港仔黃竹坑道125號	835885	835885	812487	812487			25182111	25182111									"114.17317300000002,22.251076"	
Hospitals under the Hospital Authority	醫院管理局轄下的醫院	Yan Chai Hospital General Practice Clinic	仁濟醫院全科診所	"7-11 Yan Chai Street, Tsuen Wan, New Territories"	新界荃灣仁濟街7-11號	830364.7	830364.7	825598.2	825598.2	"Mon - Fri 9:00am - 5:00pm, Sat 9:00am - 1:00pm"		24178383	24178383									"114.11945679999997,22.369953"	
Hospitals under the Hospital Authority	醫院管理局轄下的醫院	St. John Hospital	長洲醫院	"Cheung Chau Hospital Road, Tung Wan, Cheung Chau"	長洲東灣長洲醫院路	821279	821279	807722	807722			29819441	29819441									"114.03062669999997,22.2078858"	
Hospitals under the Hospital Authority	醫院管理局轄下的醫院	Princess Margaret Hospital	瑪嘉烈醫院	"2-10 Princess Margaret Hospital Road, NT"	新界瑪嘉烈醫院道 2-10 號	831922.7	831922.7	822341.2	822341.2			29901111	29901111									"114.13432060000002,22.3409226"	
Hospitals under the Hospital Authority	醫院管理局轄下的醫院	Tsan Yuk Hospital	贊育醫院	"30 Hospital Road, Sai Ying Pun, Hong Kong"	香港西營盤醫院道30號	832939	832939	816362	816362			25892100	25892100									"114.14509499999997,22.28635"	
Hospitals under the Hospital Authority	醫院管理局轄下的醫院	Queen Mary Hospital	瑪麗醫院	"102 Pokfulam Road, Pok Fu Lam, Hong Kong"	香港薄扶林薄扶林道102號	831489	831489	814630	814630			22553838	22553838									"114.13095699999997,22.269962"	
Hospitals under the Hospital Authority	醫院管理局轄下的醫院	Our Lady of Maryknoll Hospital	聖母醫院	"118 Shatin Pass Road, Wong Tai Sin, Kowloon"	九龍黃大仙沙田坳道118號	838297	838297	822944	822944			23202121	23202121									"114.19599119999998,22.3458478"	
Hospitals under the Hospital Authority	醫院管理局轄下的醫院	Siu Lam Hospital	小欖醫院	"15 Tsing Chung Koon Road, Tuen Mun, N.T."	新界屯門青松觀路 15 號	815468.7	815468.7	830096.1	830096.1			24567111	24567111	24559330	24559330							"113.97303799999997,22.409099"	
Hospitals under the Hospital Authority	醫院管理局轄下的醫院	Caritas Medical Centre General Practice Clinic	明愛醫院全科門診	"111 Wing Hong Street, Sham Shui Po, Kowloon"	九龍深水埗永康街111號	833784.7	833784.7	822460.1	822460.1	Mon - Fri 8:30am - 5:00pm		34087911	34087911									"114.15411399999994,22.34185"	
Hospitals under the Hospital Authority	醫院管理局轄下的醫院	Ruttonjee Hospital	律敦治醫院	"266 Queen' s Road East, Wan Chai, Hong Kong"	香港灣仔皇后大道東266號	836068.8	836068.8	815141.8	815141.8	Mon - Fri 8:30am - 5:00pm		22912000	22912000									"114.175370,22.275930"	
Hospitals under the Hospital Authority	醫院管理局轄下的醫院	Pamela Youde Nethersole Eastern Hospital	東區尤德夫人那打素醫院	"3 Lok Man Road, Chai Wan, Hong Kong"	香港柴灣樂民道3號	842434	842434	814578	814578	Mon - Fri 9:00am - 6:00pm		25956111	25956111									"114.23632599999996,22.269453"	
Hospitals under the Hospital Authority	醫院管理局轄下的醫院	Wong Chuk Hang Hospital	黃竹坑醫院	"2 Wong Chuk Hang Path, Wong Chuk Hang, Hong Kong"	香港黃竹坑黃竹坑徑2號	836169	836169	812466	812466			28737222	28737222									"114.17573400000003,22.250688"	
Hospitals under the Hospital Authority	醫院管理局轄下的醫院	North District Hospital	北區醫院	"9 Po Kin Road, Sheung Shui, New Territories"	新界上水保健路9號	830885	830885	839693	839693	Mon - Fri 8:30am - 5:30pm		26838888	26838888									"114.12746960000004,22.505696"	
Hospitals under the Hospital Authority	醫院管理局轄下的醫院	Tung Wah Eastern Hospital	東華東院	"19 Eastern Hospital Road, Causeway Bay, Hong Kong"	香港銅鑼灣東院道19號	837648	837648	815097	815097	"Mon - Fri 9:00am - 5:00pm, Sat 9:00am - 1:00pm"		21626888	21626888									"114.19027900000003,22.274745"	
Hospitals under the Hospital Authority	醫院管理局轄下的醫院	Yung Fung Shee Memorial Centre	容鳳書紀念中心	"79 Cha Kwo Ling Road, Kwun Tong, KLN"	九龍觀塘茶果嶺道 79 號	841609.5	841609.5	818813	818813	Mon - Fri 8:45am - 1:00pm2:00pm - 5:30pm	星期一至五 上午八時四十五分至下午一時下午二時至下午五時半	2727 8494	2727 8494									"114.22857010000007,22.3085452"	
Hospitals under the Hospital Authority	醫院管理局轄下的醫院	Pok Oi Hospital	博愛醫院	"Au Tau, Yuen Long, New Territories"	新界元朗坳頭	822322	822322	834003	834003			24868000	24868000									"114.04434079999999,22.4445526"	
Hospitals under the Hospital Authority	醫院管理局轄下的醫院	Kowloon Hospital	九龍醫院	"147A Argyle Street, Kowloon"	九龍亞皆老街147號A	836660	836660	820535	820535	Mon - Fri 9:00am - 4:30pm		31297111	31297111									"114.17893600000002,22.322344"	
Hospitals under the Hospital Authority	醫院管理局轄下的醫院	Tuen Mun Hospital	屯門醫院	"23 Tsing Chung Koon Road, Tuen Mun, New Territories"	新界屯門青松觀路23號	815663	815663	829992	829992	"Mon - Fri 9:00am - 5:00pm, Sat 9:00am - 1:00pm"		24685111	24685111									"113.97632299999998,22.407486"	
Hospitals under the Hospital Authority	醫院管理局轄下的醫院	Tang Shiu Kin Hospital	鄧肇堅醫院	"282 Queen's Road East, Wan Chai, Hong Kong"	香港灣仔皇后大道東282號	836357	836357	815162	815162			22912000	22912000									"114.17766310000002,22.2753172"	
Hospitals under the Hospital Authority	醫院管理局轄下的醫院	Fung Yiu King Hospital	東華三院馮堯敬醫院	"9 Sandy Bay Road, Pok Fu Lam, Hong Kong"	香港薄扶林大口環道9號	830904.4	830904.4	814730.5	814730.5	Mon - Fri 9:00am - 5:30pm		28556111	28556111									"114.12483399999996,22.271441"	
Hospitals under the Hospital Authority	醫院管理局轄下的醫院	Hong Kong Eye Hospital	香港眼科醫院	"147K Argyle Street, Kowloon"	九龍亞皆老街147號K	837066	837066	820656	820656			27623007	27623007									"114.18463399999996,22.324956"	